<?xml version="1.0"?>
<!DOCTYPE svg PUBLIC "-//W3C//DTD SVG 1.1//EN" "http://www.w3.org/Graphics/SVG/1.1/DTD/svg11.dtd">

<svg xmlns="http://www.w3.org/2000/svg" width="300" height="200">
<rect width="300" height="200" fill="#da251d"/>
<polygon points="150, 40 114.7, 148.5 207.1, 81.5 92.9, 81.5 185.3, 148.5" fill="#ffff00"/>
</svg>
